Project 1: Exploratory Data Analysis
…
library(modelr)
heights

## # A tibble: 7,006 x 8
##    income height weight   age marital  sex    education  afqt
##     <int>  <dbl>  <int> <int> <fct>    <fct>      <int> <dbl>
##  1  19000     60    155    53 married  female        13  6.84
##  2  35000     70    156    51 married  female        10 49.4 
##  3 105000     65    195    52 married  male          16 99.4 
##  4  40000     63    197    54 married  female        14 44.0 
##  5  75000     66    190    49 married  male          14 59.7 
##  6 102000     68    200    49 divorced female        18 98.8 
##  7      0     74    225    48 married  male          16 82.3 
##  8  70000     64    160    54 divorced female        12 50.3 
##  9  60000     69    162    55 divorced male          12 89.7 
## 10 150000     69    194    54 divorced male          13 96.0 
## # … with 6,996 more rows
…
happyfixed %>% group_by(happy) %>% summarize(mean_age = mean(age, 
    na.rm = T), sd_age = sd(age, na.rm = T))

## # A tibble: 3 x 3
##   happy         mean_age sd_age
##   <fct>            <dbl>  <dbl>
## 1 not too happy     51.7   2.27
## 2 pretty happy      51.3   2.34
## 3 very happy        51.2   2.20

happypiv <- happyfixed %>% pivot_wider(1:8)
happypiv

## # A tibble: 200 x 8
##    happy           age sex    marital  finrela           health    income height
##    <fct>         <dbl> <fct>  <fct>    <fct>             <fct>      <int>  <dbl>
##  1 pretty happy     52 male   married  average           good       52000     72
##  2 very happy       49 male   married  below average     fair      125000     72
##  3 pretty happy     48 female married  below average     fair       36000     70
##  4 very happy       51 male   married  above average     good       41000     67
##  5 very happy       49 male   married  above average     fair       35000     72
##  6 very happy       52 male   married  average           fair       14000     65
##  7 pretty happy     53 male   married  average           good       85000     71
##  8 very happy       53 male   divorced below average     excellent  32000     67
##  9 not too happy    54 male   married  far above average poor      343830     72
## 10 very happy       52 female married  above average     excellent  35000     66
## # … with 190 more rows
…
