Project 2: Modeling, Testing, and Predicting
…
## ── Conflicts ────────────────────────────────────────────────────────────── tidyverse_conflicts() ──
## x dplyr::filter() masks stats::filter()
## x dplyr::lag()    masks stats::lag()

#Introduction
For project 2, I will use the dataset heights (used in project 1), I wanted to break this down more than I did in the first projet. This dataset includes: height, income, education, marital status, age, weight, and sex. From the 1920s to today, women have come a long way in society. I think every generation of women have been able to overcome adversity and chip away at the glass ceiling. I know there have been studies about the gender gap but I think it would be something interesting to look at in my own analysis. I am interested to see if income and education level are affected by sex. I have always been tall for a girl and I am curious to see if there are any benefits that come with height. In project 2, I will compare sex to height, income, and education to see if there are any significant differences or correlations between them.

library(dplyr)
library(rstatix)
library(modelr)
library(tidyverse)
library(gridExtra)
heights

## # A tibble: 7,006 x 8
## income height weight age marital sex education afqt
## <int> <dbl> <int> <int> <fct> <fct> <int> <dbl>
## 1 19000 60 155 53 married female 13 6.84
## 2 35000 70 156 51 married female 10 49.4
## 3 105000 65 195 52 married male 16 99.4
## 4 40000 63 197 54 married female 14 44.0
## 5 75000 66 190 49 married male 14 59.7
## 6 102000 68 200 49 divorced female 18 98.8
## 7 0 74 225 48 married male 16 82.3
## 8 70000 64 160 54 divorced female 12 50.3
## 9 60000 69 162 55 divorced male 12 89.7
## 10 150000 69 194 54 divorced male 13 96.0
## # … with 6,996 more rows

height.data <- na.omit(heights)
height.data

## # A tibble: 6,645 x 8
## income height weight age marital sex education afqt
## <int> <dbl> <int> <int> <fct> <fct> <int> <dbl>
## 1 19000 60 155 53 married female 13 6.84
## 2 35000 70 156 51 married female 10 49.4
## 3 105000 65 195 52 married male 16 99.4
## 4 40000 63 197 54 married female 14 44.0
## 5 75000 66 190 49 married male 14 59.7
## 6 102000 68 200 49 divorced female 18 98.8
## 7 0 74 225 48 married male 16 82.3
## 8 70000 64 160 54 divorced female 12 50.3
## 9 60000 69 162 55 divorced male 12 89.7
## 10 150000 69 194 54 divorced male 13 96.0
## # … with 6,635 more rows

#I used a random sample of 200 because this dataset is huge
set.seed(0919)
hd <- height.data[sample(nrow(height.data), 200), ]
hd

## # A tibble: 200 x 8
## income height weight age marital sex education afqt
## <int> <dbl> <int> <int> <fct> <fct> <int> <dbl>
## 1 50000 67 166 50 divorced male 16 49.8
## 2 0 64 165 52 married female 13 36.1
## 3 50000 65 158 54 married female 12 48.1
## 4 18000 66 220 50 married female 16 21.3
## 5 65000 70 280 51 married male 14 19.0
## 6 56500 72 190 49 single male 15 57.8
## 7 24000 70 190 49 single male 14 84.4
## 8 0 67 190 52 single female 12 23.4
## 9 8000 61 135 48 married female 10 24.8
## 10 0 65 130 55 married female 16 84.1
## # … with 190 more rows

#I also wrangled the data a little and used mutate to create a smaller income column
#I divided the income by 1000 to make the numbers easier to analyze in the project
#Just remember the income value is whatever that number is x1000
height.data1 <- hd %>% mutate(`income_fixed` = ntile(income,1000))
height.data1

## # A tibble: 200 x 9
## income height weight age marital sex education afqt
income_fixed
## <int> <dbl> <int> <int> <fct> <fct> <int> <dbl> <int>
## 1 50000 67 166 50 divorced male 16 49.8 139
## 2 0 64 165 52 married female 13 36.1 1
## 3 50000 65 158 54 married female 12 48.1 140
## 4 18000 66 220 50 married female 16 21.3 80
## 5 65000 70 280 51 married male 14 19.0 161
## 6 56500 72 190 49 single male 15 57.8 150
## 7 24000 70 190 49 single male 14 84.4 95
## 8 0 67 190 52 single female 12 23.4 2
## 9 8000 61 135 48 married female 10 24.8 58
## 10 0 65 130 55 married female 16 84.1 3
## # … with 190 more rows
…
